{
  "content" : [ {
    "birthDay" : "30-11-2017 00:00",
    "gender" : "MALE",
    "id" : 1,
    "lastname" : "Doe",
    "location" : {
      "latitude" : 50.116302,
      "longitude" : 8.684477
    },
    "name" : "John",
    "version" : "30-11-2017 16:21"
  }, {
    "birthDay" : "30-11-2027 00:00",
    "gender" : "FEMALE",
    "id" : 2,
    "lastname" : "Doe",
    "location" : {
      "latitude" : 50.116302,
      "longitude" : 8.684477
    },
    "name" : "Jane",
    "version" : "30-11-2017 16:21"
  } ],
  "first" : true,
  "last" : false,
  "number" : 0,
  "numberOfElements" : 2,
  "size" : 2,
  "totalElements" : 4,
  "totalPages" : 2
}